<svg width="75" height="75" viewBox="0 0 75 75" fill="none" xmlns="http://www.w3.org/2000/svg">
<path d="M72.6025 51.7008L67.3496 60.7993C67.037 61.3404 66.3735 61.569 65.7941 61.3351L58.0615 58.2136C57.4193 57.9545 57.1088 57.2237 57.368 56.5814C57.6273 55.9389 58.358 55.6283 59.0004 55.8879L65.7223 58.6014L69.8855 51.3904L64.1817 46.9316C63.7722 46.6115 63.6028 46.0722 63.7553 45.5755C65.3351 40.4325 65.3954 34.7642 63.7553 29.4249C63.6028 28.9281 63.7722 28.3888 64.1817 28.0687L69.8855 23.6099L65.7223 16.3989L59.0004 19.1124C58.5183 19.3072 57.9665 19.1842 57.6126 18.8036C53.8374 14.7443 49.0042 11.9514 43.6359 10.7265C43.1288 10.6108 42.7457 10.194 42.6731 9.6787L41.6633 2.50813H33.3367L32.3269 9.67838C32.2543 10.1935 31.8712 10.6103 31.3641 10.7262C25.9956 11.9511 21.1626 14.7442 17.3874 18.8033C17.0335 19.1839 16.4817 19.3069 15.9996 19.1121L9.27771 16.3986L5.11438 23.6096L10.8182 28.0684C11.2276 28.3885 11.3971 28.9278 11.2446 29.4245C9.66475 34.5675 9.60439 40.2358 11.2446 45.5751C11.3971 46.0719 11.2276 46.6112 10.8182 46.9313L5.11438 51.3901L9.27771 58.6011L15.9996 55.8876C16.4817 55.6928 17.0336 55.8158 17.3874 56.1964C21.1626 60.2557 25.9958 63.0486 31.3641 64.2735C31.8712 64.3892 32.2543 64.806 32.3269 65.3213L33.3367 72.4916H41.6633L42.6731 65.3213C42.7457 64.8062 43.1288 64.3894 43.6359 64.2735C46.5754 63.6029 49.3696 62.4548 51.9405 60.8619C52.5297 60.4974 53.3024 60.6789 53.667 61.2674C54.0318 61.8562 53.8502 62.6293 53.2616 62.9941C50.7021 64.58 47.9394 65.7618 45.0382 66.5133L43.995 73.9206C43.9079 74.5393 43.3782 74.9997 42.7532 74.9997H32.2471C31.6221 74.9997 31.0924 74.5393 31.0053 73.9206L29.9621 66.5133C24.7173 65.1561 19.9727 62.4142 16.1508 58.5313L9.20623 61.3346C8.6267 61.5688 7.9633 61.3401 7.65072 60.7988L2.39761 51.7003C2.08503 51.159 2.21891 50.4702 2.71128 50.0852L8.60459 45.4781C7.17089 40.2756 7.17057 34.7247 8.60459 29.5209L2.71128 24.9138C2.21891 24.5288 2.08503 23.84 2.39761 23.2988L7.65072 14.2002C7.9633 13.6589 8.62654 13.4304 9.20623 13.6644L16.1508 16.4677C19.9727 12.5848 24.7173 9.84298 29.9621 8.48577L31.0053 1.07849C31.0923 0.460398 31.622 0 32.247 0H42.753C43.378 0 43.9077 0.460398 43.9949 1.07912L45.0381 8.4864C50.2829 9.84361 55.0275 12.5855 58.8494 16.4683L65.7941 13.665C66.3736 13.4313 67.0372 13.6594 67.3496 14.2008L72.6025 23.2994C72.9151 23.8407 72.7812 24.5295 72.2889 24.9145L66.3956 29.5216C67.8293 34.7241 67.8296 40.275 66.3956 45.4787L72.2889 50.0858C72.7812 50.4707 72.9151 51.1593 72.6025 51.7008ZM35.4458 43.4656L41.7161 32.8061C42.0672 32.209 41.868 31.4404 41.271 31.0893C40.6743 30.7383 39.9055 30.9374 39.5542 31.5343L33.2839 42.1939C32.9328 42.791 33.132 43.5596 33.729 43.9107C34.3262 44.2618 35.0948 44.0624 35.4458 43.4656ZM30.5488 32.6925C30.0593 32.2031 29.2653 32.2029 28.7754 32.6925L24.8546 36.6133C24.3652 37.1028 24.3649 37.897 24.8546 38.3869L28.7754 42.3077C29.2653 42.7974 30.0591 42.7972 30.5488 42.3077C31.0387 41.8178 31.0387 41.0238 30.5488 40.5341L27.5148 37.5002L30.5488 34.4663C31.0387 33.9763 31.0387 33.1823 30.5488 32.6925ZM45.1812 42.675C45.5021 42.675 45.8231 42.5525 46.068 42.3077L49.9888 38.3867C50.4782 37.8971 50.4785 37.103 49.9888 36.6131L46.068 32.6923C45.5783 32.2028 44.7843 32.2028 44.2946 32.6923C43.8047 33.1822 43.8047 33.9762 44.2946 34.4659L47.3286 37.4998L44.2946 40.5338C43.5019 41.3268 44.074 42.675 45.1812 42.675ZM30.161 57.516C32.5547 58.3937 35.0365 58.8306 37.5121 58.8304C53.0037 58.8296 63.3863 42.654 56.8426 28.5353C51.8995 17.8701 39.2011 13.2144 28.5353 18.1573C14.9759 24.4417 11.9015 42.5102 22.7462 52.8967C23.2464 53.3759 24.0404 53.3586 24.5193 52.8584C24.9983 52.3584 24.9812 51.5644 24.481 51.0853C14.9186 41.9266 17.6194 25.9807 29.5898 20.4329C39.001 16.0714 50.2053 20.1791 54.5668 29.5899C58.9284 39.0006 54.8206 50.2053 45.4098 54.5669C40.8508 56.6799 35.7419 56.8909 31.0239 55.1612C30.3739 54.9231 29.6533 55.2568 29.4148 55.9069C29.1767 56.5573 29.5106 57.2777 30.161 57.516Z" fill="white"/>
</svg>
